<svg xmlns="http://www.w3.org/2000/svg" width="2500" height="2500" viewBox="0 0 256 256" preserveAspectRatio="xMidYMid">
	<mask xmlns="http://www.w3.org/2000/svg" id="masking">
		<rect fill="white" mask="url(#masking)" width="256" height="256" rx="25"/>
		<rect fill="black" x="144.64" y="33.28" width="78.08" height="112" rx="12"/>
		<rect fill="black" x="33.28" y="33.28" width="78.08" height="176" rx="12"/>
	</mask>
	<rect fill="white" mask="url(#masking)" width="256" height="256" rx="25"/>
</svg>